2019-06-16 23:08:49 INFO  RegistrationController:30 - Open registration form.
2019-06-16 23:09:20 INFO  RegistrationController:53 - User testuser was created!
2019-06-17 00:03:51 INFO  MainController:17 - Open main page.
2019-06-17 00:03:56 INFO  MainController:17 - Open main page.
2019-06-17 00:04:05 INFO  RegistrationController:30 - Open registration form.
2019-06-17 00:04:28 INFO  RegistrationController:30 - Open registration form.
2019-06-17 00:04:43 INFO  RegistrationController:53 - User folder was created!
2019-06-17 00:04:43 INFO  RegistrationController:54 - redirect:/login
2019-06-17 00:04:50 INFO  MainController:25 - Open personalcabinet page.
2019-06-17 00:04:50 INFO  MainController:25 - Open personalcabinet page.
2019-06-17 00:04:54 INFO  MainController:17 - Open main page.
2019-06-17 00:04:54 INFO  MainController:25 - Open personalcabinet page.
2019-06-17 00:04:56 INFO  FolderController:29 - Open folderlist page.
2019-06-17 00:04:56 INFO  MainController:25 - Open personalcabinet page.
2019-06-17 00:05:17 INFO  FolderController:29 - Open folderlist page.
2019-06-17 00:05:17 INFO  MainController:25 - Open personalcabinet page.
2019-06-17 00:05:19 INFO  FolderController:37 - Open newfolder page.
2019-06-17 00:05:19 INFO  MainController:25 - Open personalcabinet page.
2019-06-17 00:05:23 INFO  FolderController:47 - Create folder : test
2019-06-17 00:05:23 INFO  FolderController:51 - Set author of folder : mailapp.domain.User@d3f850b
2019-06-17 00:05:23 INFO  FolderController:53 - redirect:/letter/folderlist
2019-06-17 00:05:23 INFO  FolderController:29 - Open folderlist page.
2019-06-17 00:05:23 INFO  MainController:25 - Open personalcabinet page.
2019-06-17 00:05:26 INFO  FolderController:72 - Open edit folder page by id: 25
2019-06-17 00:05:26 INFO  MainController:25 - Open personalcabinet page.
2019-06-17 00:05:28 INFO  FolderController:86 - Change folder name to :test1
2019-06-17 00:05:28 INFO  FolderController:88 - Save folder. redirect:/letter/folderlist
2019-06-17 00:05:28 INFO  FolderController:29 - Open folderlist page.
2019-06-17 00:05:28 INFO  MainController:25 - Open personalcabinet page.
2019-06-17 00:05:30 INFO  LetterController:59 - Open page of writing letters.
2019-06-17 00:05:30 INFO  MainController:25 - Open personalcabinet page.
2019-06-17 00:05:38 INFO  LetterController:76 - Set author of the writing letter: mailapp.domain.User@d3f850b
2019-06-17 00:05:38 INFO  LetterController:79 - Save letter. redirect:/
2019-06-17 00:05:38 INFO  MainController:17 - Open main page.
2019-06-17 00:05:38 INFO  MainController:25 - Open personalcabinet page.
2019-06-17 00:06:13 INFO  MainController:17 - Open main page.
2019-06-17 00:06:13 INFO  MainController:25 - Open personalcabinet page.
2019-06-17 00:06:14 INFO  LetterController:35 - Open page with OUT letters
2019-06-17 00:06:14 INFO  MainController:25 - Open personalcabinet page.
2019-06-17 00:06:45 INFO  LetterController:43 - Open page with IN letters
2019-06-17 00:06:45 INFO  MainController:25 - Open personalcabinet page.
2019-06-17 00:06:46 INFO  LetterController:35 - Open page with OUT letters
2019-06-17 00:06:46 INFO  MainController:25 - Open personalcabinet page.
2019-06-17 00:06:56 INFO  MainController:17 - Open main page.
2019-06-17 00:07:10 INFO  LetterController:51 - Delete letter with id: 26
2019-06-17 00:07:10 INFO  LetterController:52 - redirect:/letter
2019-06-17 00:07:10 INFO  LetterController:35 - Open page with OUT letters
2019-06-17 00:07:11 INFO  MainController:25 - Open personalcabinet page.
2019-06-17 00:07:25 INFO  UserController:33 - Open profile of user: folder
2019-06-17 00:07:25 INFO  MainController:25 - Open personalcabinet page.
2019-06-17 00:07:33 INFO  UserController:49 - Changed username to: folder
2019-06-17 00:07:33 INFO  UserController:51 - Changed surname to: ht
2019-06-17 00:07:33 INFO  UserController:53 - Changed password to: $2a$08$4DVqekTUdIq8KTAFp5gR8uNsy4cD/ZNSMKO2zCw2BoW2EA9c5vdfi
2019-06-17 00:07:33 INFO  UserController:55 - Changed phone to: 456356
2019-06-17 00:07:33 INFO  UserController:57 - Set email into table emailaddr: folder@mail.ru
2019-06-17 00:07:33 INFO  UserController:59 - Save changes, redirect:/
2019-06-17 00:07:33 INFO  MainController:17 - Open main page.
2019-06-17 00:07:33 INFO  MainController:25 - Open personalcabinet page.
2019-06-17 00:58:00 INFO  MainController:17 - Open main page.
2019-06-17 00:58:03 INFO  RegistrationController:32 - Open registration form.
2019-06-17 01:04:16 INFO  RegistrationController:32 - Open registration form.
2019-06-17 01:04:22 INFO  RegistrationController:32 - Open registration form.
2019-06-17 01:04:33 INFO  RegistrationController:64 - User old was created!
2019-06-17 01:04:33 INFO  RegistrationController:65 - redirect:/login
2019-06-17 01:04:41 INFO  MainController:25 - Open personalcabinet page.
2019-06-17 01:04:41 INFO  MainController:25 - Open personalcabinet page.
2019-06-17 01:04:50 INFO  RegistrationController:32 - Open registration form.
2019-06-17 01:05:42 INFO  RegistrationController:32 - Open registration form.
2019-06-17 01:12:32 INFO  RegistrationController:64 - User t was created!
2019-06-17 01:12:32 INFO  RegistrationController:65 - redirect:/login
2019-06-17 02:05:14 INFO  RegistrationController:33 - Open registration form.
2019-06-17 02:05:22 ERROR RegistrationController:58 - User exists!
2019-06-17 02:05:32 INFO  RegistrationController:66 - User ad was created!
2019-06-17 02:05:32 INFO  RegistrationController:67 - redirect:/login
2019-06-17 02:05:37 INFO  MainController:25 - Open personalcabinet page.
2019-06-17 02:05:37 INFO  MainController:25 - Open personalcabinet page.
2019-06-17 02:05:39 INFO  UserController:33 - Open profile of user: ad
2019-06-17 02:05:39 INFO  MainController:25 - Open personalcabinet page.
2019-06-17 02:05:41 INFO  UserController:49 - Changed username to: ad
2019-06-17 02:05:41 INFO  UserController:51 - Changed surname to: 
2019-06-17 02:05:41 INFO  UserController:53 - Changed password to: $2a$08$Yu1fgOS3JTfyVjYOVTX0Dui7aCmH1P00M2JqSJQh/QcmARkh9Y2IS
2019-06-17 02:05:41 INFO  UserController:55 - Changed phone to: 
2019-06-17 02:05:41 INFO  UserController:57 - Set email into table emailaddr: ad@mail.ru
2019-06-17 02:05:41 INFO  UserController:59 - Save changes, redirect:/
2019-06-17 02:05:41 INFO  MainController:17 - Open main page.
2019-06-17 02:05:42 INFO  MainController:25 - Open personalcabinet page.
2019-06-17 02:05:44 INFO  UserController:33 - Open profile of user: ad
2019-06-17 02:05:44 INFO  MainController:25 - Open personalcabinet page.
2019-06-17 02:05:47 INFO  UserController:49 - Changed username to: ad
2019-06-17 02:05:47 INFO  UserController:51 - Changed surname to: 
2019-06-17 02:05:47 INFO  UserController:53 - Changed password to: 
2019-06-17 02:05:47 INFO  UserController:55 - Changed phone to: 
2019-06-17 02:05:47 INFO  UserController:57 - Set email into table emailaddr: ad@mail.ru
2019-06-17 02:05:47 INFO  UserController:59 - Save changes, redirect:/
2019-06-17 02:05:47 INFO  MainController:17 - Open main page.
2019-06-17 02:05:47 INFO  MainController:25 - Open personalcabinet page.
2019-06-17 02:05:49 INFO  UserController:33 - Open profile of user: ad
2019-06-17 02:05:49 INFO  MainController:25 - Open personalcabinet page.
2019-06-17 02:05:52 INFO  UserController:49 - Changed username to: ad
2019-06-17 02:05:52 INFO  UserController:51 - Changed surname to: 
2019-06-17 02:05:52 INFO  UserController:53 - Changed password to: ad
2019-06-17 02:05:52 INFO  UserController:55 - Changed phone to: 
2019-06-17 02:05:52 INFO  UserController:57 - Set email into table emailaddr: ad@mail.ru
2019-06-17 02:05:52 INFO  UserController:59 - Save changes, redirect:/
2019-06-17 02:05:52 INFO  MainController:17 - Open main page.
2019-06-17 02:05:52 INFO  MainController:25 - Open personalcabinet page.
2019-06-17 11:28:48 INFO  MainController:17 - Open main page.
2019-06-17 11:29:03 INFO  RegistrationController:33 - Open registration form.
2019-06-17 11:29:36 INFO  MainController:25 - Open personalcabinet page.
2019-06-17 11:29:37 INFO  MainController:25 - Open personalcabinet page.
2019-06-17 11:29:40 INFO  MainController:17 - Open main page.
2019-06-17 11:29:40 INFO  MainController:25 - Open personalcabinet page.
2019-06-17 11:29:41 INFO  LetterController:35 - Open page with OUT letters
2019-06-17 11:29:41 INFO  MainController:25 - Open personalcabinet page.
2019-06-17 11:29:42 INFO  LetterController:43 - Open page with IN letters
2019-06-17 11:29:42 INFO  MainController:25 - Open personalcabinet page.
2019-06-17 11:29:43 INFO  UserController:33 - Open profile of user: admin
2019-06-17 11:29:43 INFO  MainController:25 - Open personalcabinet page.
2019-06-17 11:29:49 INFO  UserController:49 - Changed username to: 
2019-06-17 11:29:49 INFO  UserController:51 - Changed surname to: 
2019-06-17 11:29:49 INFO  UserController:53 - Changed password to: $2a$08$ShJWozq01hlERtF4TnH1Z.ass0UBKM25YssSGAOg1lSpsx.fmwfTG
2019-06-17 11:29:49 INFO  UserController:55 - Changed phone to: 
2019-06-17 11:29:49 INFO  UserController:57 - Set email into table emailaddr: admin@mail.ru
2019-06-17 11:29:53 INFO  UserController:33 - Open profile of user: 
2019-06-17 11:29:53 INFO  MainController:25 - Open personalcabinet page.
2019-06-17 11:30:11 INFO  LetterController:59 - Open page of writing letters.
2019-06-17 11:30:11 INFO  MainController:25 - Open personalcabinet page.
2019-06-17 11:30:14 INFO  LetterController:76 - Set author of the writing letter: mailapp.domain.User@76269ee
2019-06-17 11:30:14 INFO  LetterController:79 - Save letter. redirect:/
2019-06-17 11:30:14 INFO  MainController:17 - Open main page.
2019-06-17 11:30:15 INFO  MainController:25 - Open personalcabinet page.
2019-06-17 11:30:17 INFO  LetterController:59 - Open page of writing letters.
2019-06-17 11:30:17 INFO  MainController:25 - Open personalcabinet page.
2019-06-17 11:30:18 INFO  FolderController:29 - Open folderlist page.
2019-06-17 11:30:18 INFO  MainController:25 - Open personalcabinet page.
2019-06-17 11:30:30 INFO  FolderController:29 - Open folderlist page.
2019-06-17 11:30:30 INFO  MainController:25 - Open personalcabinet page.
2019-06-17 11:30:31 INFO  FolderController:37 - Open newfolder page.
2019-06-17 11:30:31 INFO  MainController:25 - Open personalcabinet page.
2019-06-17 11:30:36 INFO  FolderController:47 - Create folder : ooo
2019-06-17 11:30:36 INFO  FolderController:51 - Set author of folder : mailapp.domain.User@76269ee
2019-06-17 11:30:36 INFO  FolderController:53 - redirect:/letter/folderlist
2019-06-17 11:30:36 INFO  FolderController:29 - Open folderlist page.
2019-06-17 11:30:36 INFO  MainController:25 - Open personalcabinet page.
2019-06-17 11:30:43 INFO  FolderController:61 - Delete folder by ID : 36
2019-06-17 11:30:43 INFO  FolderController:62 - redirect:/letter/folderlist
2019-06-17 11:30:43 INFO  FolderController:29 - Open folderlist page.
2019-06-17 11:30:44 INFO  MainController:25 - Open personalcabinet page.
2019-06-17 11:30:46 INFO  FolderController:37 - Open newfolder page.
2019-06-17 11:30:46 INFO  MainController:25 - Open personalcabinet page.
2019-06-17 11:30:49 INFO  FolderController:47 - Create folder : sadfgdfg
2019-06-17 11:30:49 INFO  FolderController:51 - Set author of folder : mailapp.domain.User@76269ee
2019-06-17 11:30:49 INFO  FolderController:53 - redirect:/letter/folderlist
2019-06-17 11:30:49 INFO  FolderController:29 - Open folderlist page.
2019-06-17 11:30:49 INFO  MainController:25 - Open personalcabinet page.
2019-06-17 11:30:51 INFO  FolderController:37 - Open newfolder page.
2019-06-17 11:30:51 INFO  MainController:25 - Open personalcabinet page.
2019-06-17 11:30:53 INFO  FolderController:47 - Create folder : dfgdsfg
2019-06-17 11:30:53 INFO  FolderController:51 - Set author of folder : mailapp.domain.User@76269ee
2019-06-17 11:30:53 INFO  FolderController:53 - redirect:/letter/folderlist
2019-06-17 11:30:53 INFO  FolderController:29 - Open folderlist page.
2019-06-17 11:30:54 INFO  MainController:25 - Open personalcabinet page.
2019-06-17 11:30:56 INFO  FolderController:72 - Open edit folder page by id: 37
2019-06-17 11:30:56 INFO  MainController:25 - Open personalcabinet page.
2019-06-17 11:30:59 INFO  FolderController:86 - Change folder name to :a
2019-06-17 11:30:59 INFO  FolderController:88 - Save folder. redirect:/letter/folderlist
2019-06-17 11:30:59 INFO  FolderController:29 - Open folderlist page.
2019-06-17 11:30:59 INFO  MainController:25 - Open personalcabinet page.
2019-06-17 11:31:01 INFO  FolderController:72 - Open edit folder page by id: 38
2019-06-17 11:31:01 INFO  MainController:25 - Open personalcabinet page.
2019-06-17 11:31:04 INFO  FolderController:86 - Change folder name to :
2019-06-17 11:31:04 INFO  FolderController:88 - Save folder. redirect:/letter/folderlist
2019-06-17 11:31:04 INFO  FolderController:29 - Open folderlist page.
2019-06-17 11:31:04 INFO  MainController:25 - Open personalcabinet page.
2019-06-17 11:31:07 INFO  FolderController:61 - Delete folder by ID : 38
2019-06-17 11:31:07 INFO  FolderController:62 - redirect:/letter/folderlist
2019-06-17 11:31:07 INFO  FolderController:29 - Open folderlist page.
2019-06-17 11:31:07 INFO  MainController:25 - Open personalcabinet page.
2019-06-17 11:31:16 INFO  LetterController:59 - Open page of writing letters.
2019-06-17 11:31:16 INFO  MainController:25 - Open personalcabinet page.
2019-06-17 11:31:18 INFO  FolderController:29 - Open folderlist page.
2019-06-17 11:31:18 INFO  MainController:25 - Open personalcabinet page.
2019-06-17 11:31:20 INFO  LetterController:59 - Open page of writing letters.
2019-06-17 11:31:20 INFO  MainController:25 - Open personalcabinet page.
2019-06-17 11:31:31 INFO  LetterController:76 - Set author of the writing letter: mailapp.domain.User@76269ee
2019-06-17 11:31:31 INFO  LetterController:79 - Save letter. redirect:/
2019-06-17 11:31:31 INFO  MainController:17 - Open main page.
2019-06-17 11:31:31 INFO  MainController:25 - Open personalcabinet page.
2019-06-17 11:31:33 INFO  LetterController:43 - Open page with IN letters
2019-06-17 11:31:34 INFO  MainController:25 - Open personalcabinet page.
2019-06-17 11:31:34 INFO  LetterController:35 - Open page with OUT letters
2019-06-17 11:31:35 INFO  MainController:25 - Open personalcabinet page.
2019-06-17 11:31:50 INFO  LetterController:35 - Open page with OUT letters
2019-06-17 11:31:50 INFO  MainController:25 - Open personalcabinet page.
2019-06-17 11:31:54 INFO  FolderController:29 - Open folderlist page.
2019-06-17 11:31:54 INFO  MainController:25 - Open personalcabinet page.
2019-06-17 11:32:49 INFO  LetterController:43 - Open page with IN letters
2019-06-17 11:32:49 INFO  MainController:25 - Open personalcabinet page.
2019-06-17 11:32:52 INFO  LetterController:35 - Open page with OUT letters
2019-06-17 11:32:52 INFO  MainController:25 - Open personalcabinet page.
2019-06-17 11:32:53 INFO  LetterController:59 - Open page of writing letters.
2019-06-17 11:32:53 INFO  MainController:25 - Open personalcabinet page.
2019-06-17 11:32:54 INFO  UserController:33 - Open profile of user: 
2019-06-17 11:32:54 INFO  MainController:25 - Open personalcabinet page.
2019-06-17 11:32:55 INFO  FolderController:29 - Open folderlist page.
2019-06-17 11:32:55 INFO  MainController:25 - Open personalcabinet page.
2019-06-17 11:32:57 INFO  MainController:25 - Open personalcabinet page.
2019-06-17 11:32:57 INFO  MainController:25 - Open personalcabinet page.
2019-06-17 11:36:34 INFO  LetterController:43 - Open page with IN letters
2019-06-17 11:36:34 INFO  MainController:25 - Open personalcabinet page.
2019-06-17 11:36:35 INFO  LetterController:35 - Open page with OUT letters
2019-06-17 11:36:35 INFO  MainController:25 - Open personalcabinet page.
2019-06-17 11:36:46 INFO  LetterController:35 - Open page with OUT letters
2019-06-17 11:36:46 INFO  MainController:25 - Open personalcabinet page.
2019-06-17 11:36:47 INFO  LetterController:43 - Open page with IN letters
2019-06-17 11:36:47 INFO  MainController:25 - Open personalcabinet page.
2019-06-17 11:36:47 INFO  LetterController:35 - Open page with OUT letters
2019-06-17 11:36:48 INFO  MainController:25 - Open personalcabinet page.
2019-06-17 11:44:58 INFO  MainController:25 - Open personalcabinet page.
2019-06-17 11:44:58 INFO  MainController:25 - Open personalcabinet page.
2019-06-17 11:44:59 INFO  MainController:17 - Open main page.
2019-06-17 11:44:59 INFO  MainController:25 - Open personalcabinet page.
2019-06-17 11:45:00 INFO  LetterController:35 - Open page with OUT letters
2019-06-17 11:45:00 INFO  MainController:25 - Open personalcabinet page.
2019-06-17 11:45:12 INFO  LetterController:43 - Open page with IN letters
2019-06-17 11:45:12 INFO  MainController:25 - Open personalcabinet page.
2019-06-17 11:45:13 INFO  UserController:33 - Open profile of user: 
2019-06-17 11:45:13 INFO  MainController:25 - Open personalcabinet page.
2019-06-17 11:45:14 INFO  LetterController:59 - Open page of writing letters.
2019-06-17 11:45:14 INFO  MainController:25 - Open personalcabinet page.
2019-06-17 11:45:15 INFO  FolderController:29 - Open folderlist page.
2019-06-17 11:45:15 INFO  MainController:25 - Open personalcabinet page.
2019-06-17 11:45:21 INFO  FolderController:29 - Open folderlist page.
2019-06-17 11:45:21 INFO  MainController:25 - Open personalcabinet page.
2019-06-17 11:45:22 INFO  LetterController:59 - Open page of writing letters.
2019-06-17 11:45:22 INFO  MainController:25 - Open personalcabinet page.
2019-06-17 12:17:37 INFO  MainController:17 - Open main page.
2019-06-17 19:07:07 INFO  MainController:17 - Open main page.
2019-06-17 19:07:10 INFO  RegistrationController:33 - Open registration form.
2019-06-17 19:07:19 INFO  RegistrationController:66 - User adm was created!
2019-06-17 19:07:19 INFO  RegistrationController:67 - redirect:/login
2019-06-17 19:07:22 INFO  MainController:25 - Open personalcabinet page.
2019-06-17 19:07:23 INFO  MainController:25 - Open personalcabinet page.
2019-06-17 19:07:24 INFO  LetterController:59 - Open page of writing letters.
2019-06-17 19:07:24 INFO  MainController:25 - Open personalcabinet page.
2019-06-17 19:08:49 INFO  LetterController:59 - Open page of writing letters.
2019-06-17 19:08:49 INFO  MainController:25 - Open personalcabinet page.
